<?xml version="1.0" encoding="utf-8"?>
<!-- Generator: Adobe Illustrator 23.0.4, SVG Export Plug-In . SVG Version: 6.00 Build 0)  -->
<svg version="1.1" id="Layer_1" xmlns="http://www.w3.org/2000/svg" xmlns:xlink="http://www.w3.org/1999/xlink" x="0px" y="0px"
	 viewBox="0 0 101 134" enable-background="new 0 0 101 134" xml:space="preserve">
<title>Group 3</title>
<desc>Created with Sketch.</desc>
<polygon id="Path" fill-rule="evenodd" clip-rule="evenodd" fill="none" points="1,1 100,67 1,133 "/>
<polygon fill-rule="evenodd" clip-rule="evenodd" fill="none" points="1,1 100,67 1,133 "/>
<polygon id="Path-Copy" fill="none" stroke="currentColor" stroke-width="2" stroke-linecap="round" stroke-linejoin="round" enable-background="new    " points="
	1,1 100,67 1,133 "/>
<g>
	<polyline fill="none" stroke="currentColor" stroke-width="4" stroke-linecap="round" points="53.3,61 60.7,67 53.3,73 	"/>
	<path fill="none" stroke="currentColor" stroke-width="4" stroke-linecap="round" d="M43.6,67H57"/>
	<polyline fill="none" stroke="currentColor" stroke-width="4" stroke-linecap="round" points="31.3,77 38.7,83 31.3,89 	"/>
	<path fill="none" stroke="currentColor" stroke-width="4" stroke-linecap="round" d="M21.6,83H35"/>
	<polyline fill="none" stroke="currentColor" stroke-width="4" stroke-linecap="round" points="31.3,45 38.7,51 31.3,57 	"/>
	<path fill="none" stroke="currentColor" stroke-width="4" stroke-linecap="round" d="M21.6,51H35"/>
</g>
</svg>
